Palmer Penguins
…
This is going to include the following steps: * k nearest neighbor imputation for the sex feature * Switch all nominal predictors to dummy variables * Get rid of (possible) zero variance predictors * Normalize all numeric predictors * Use smote on the label to deal with the class imbalance

rec <- recipe(species~., data = penguins_data) %>%
  step_impute_knn(sex) %>%
  step_dummy(all_nominal_predictors()) %>%
  step_zv(all_predictors()) %>%
  step_normalize(all_numeric_predictors()) %>%
  step_smote(species)

We can see how the training data look after the pre-processing:

rec %>% prep() %>% bake(new_data = NULL)

## # A tibble: 453 x 8
##    bill_length_mm bill_depth_mm flipper_length_mm body_mass_g island_Dream
##             <dbl>         <dbl>             <dbl>       <dbl>        <dbl>
##  1         -0.883        0.784             -1.42      -0.563        -0.753
##  2         -0.810        0.126             -1.06      -0.501        -0.753
##  3         -0.663        0.430             -0.421     -1.19         -0.753
##  4         -1.32         1.09              -0.563     -0.937        -0.753
##  5         -0.847        1.75              -0.776     -0.688        -0.753
##  6         -0.920        0.329             -1.42      -0.719        -0.753
##  7         -0.865        1.24              -0.421      0.590        -0.753
##  8         -1.80         0.480             -0.563     -0.906        -0.753
##  9         -0.352        1.54              -0.776      0.0602       -0.753
## 10         -1.12        -0.0259            -1.06      -1.12         -0.753
## # ... with 443 more rows, and 3 more variables: island_Torgersen <dbl>,
## #   sex_male <dbl>, species <fct>
…
